Required,Required,Required,Required,Required,Optional,Required,Required,Required,Required,Optional,Required,Required,Optional
Customer_Number,First_Name,Last_Name,Address_Name,Address_Line_1,Address_Line_2,Country,State,City,Postal_Code,Remarks,Type_of_Address,Default_Address,Internal_Address_Number
customer_number,first_name,last_name,address_name,address_line_1,address_line_2,country,state,city,postal_code,remarks,type_of_address,main_flag,external_address_id
1171,Yuval,Kadosh,Yuval Address 1,Havaney Hahoshen,,Israel,,Jerusalem,71726,Please leave the package in the front desc.,S,1,12232
1171,Yagel,Yaacov,Yuval Address 2,Havney Hahoshen 2 floor 3,,Israel,,Ra'anana,887765,,S,0,98878
1171,Yuvalka,Kadosh,Yuval Billing address,Yuval Billing address,,,,Jerusalem,9009889,,B,0,233323
